^C:\USERS\DYLAN\DOCUMENTS\SWINBURNE\GP\BITBUCKET\24 - SPIKE - SPRITES & GRAPHICS\GRAPHICSSDL\DEBUG\MAIN.OBJ
C:\USERS\DYLAN\DOCUMENTS\SWINBURNE\GP\BITBUCKET\24 - SPIKE - SPRITES & GRAPHICS\GRAPHICSSDL\DEBUG\GRAPHICSSDL.EXE
C:\USERS\DYLAN\DOCUMENTS\SWINBURNE\GP\BITBUCKET\24 - SPIKE - SPRITES & GRAPHICS\GRAPHICSSDL\DEBUG\GRAPHICSSDL.ILK
C:\USERS\DYLAN\DOCUMENTS\SWINBURNE\GP\BITBUCKET\24 - SPIKE - SPRITES & GRAPHICS\GRAPHICSSDL\DEBUG\GRAPHICSSDL.PDB
