^C:\USERS\DYLAN\DOCUMENTS\SWINBURNE\GP\BITBUCKET\12 - SPIKE - GAME GRAPHS FROM DATA\ZORKISH\ZORKISH\DEBUG\ABOUT.OBJ|C:\USERS\DYLAN\DOCUMENTS\SWINBURNE\GP\BITBUCKET\12 - SPIKE - GAME GRAPHS FROM DATA\ZORKISH\ZORKISH\DEBUG\HELP.OBJ|C:\USERS\DYLAN\DOCUMENTS\SWINBURNE\GP\BITBUCKET\12 - SPIKE - GAME GRAPHS FROM DATA\ZORKISH\ZORKISH\DEBUG\HIGHSCORE.OBJ|C:\USERS\DYLAN\DOCUMENTS\SWINBURNE\GP\BITBUCKET\12 - SPIKE - GAME GRAPHS FROM DATA\ZORKISH\ZORKISH\DEBUG\HOF.OBJ|C:\USERS\DYLAN\DOCUMENTS\SWINBURNE\GP\BITBUCKET\12 - SPIKE - GAME GRAPHS FROM DATA\ZORKISH\ZORKISH\DEBUG\LOCATION.OBJ|C:\USERS\DYLAN\DOCUMENTS\SWINBURNE\GP\BITBUCKET\12 - SPIKE - GAME GRAPHS FROM DATA\ZORKISH\ZORKISH\DEBUG\MAIN.OBJ|C:\USERS\DYLAN\DOCUMENTS\SWINBURNE\GP\BITBUCKET\12 - SPIKE - GAME GRAPHS FROM DATA\ZORKISH\ZORKISH\DEBUG\MAINMENU.OBJ|C:\USERS\DYLAN\DOCUMENTS\SWINBURNE\GP\BITBUCKET\12 - SPIKE - GAME GRAPHS FROM DATA\ZORKISH\ZORKISH\DEBUG\PLAYER.OBJ|C:\USERS\DYLAN\DOCUMENTS\SWINBURNE\GP\BITBUCKET\12 - SPIKE - GAME GRAPHS FROM DATA\ZORKISH\ZORKISH\DEBUG\SELECTADVENTURE.OBJ|C:\USERS\DYLAN\DOCUMENTS\SWINBURNE\GP\BITBUCKET\12 - SPIKE - GAME GRAPHS FROM DATA\ZORKISH\ZORKISH\DEBUG\STAGE.OBJ|C:\USERS\DYLAN\DOCUMENTS\SWINBURNE\GP\BITBUCKET\12 - SPIKE - GAME GRAPHS FROM DATA\ZORKISH\ZORKISH\DEBUG\STAGEMANAGER.OBJ|C:\USERS\DYLAN\DOCUMENTS\SWINBURNE\GP\BITBUCKET\12 - SPIKE - GAME GRAPHS FROM DATA\ZORKISH\ZORKISH\DEBUG\WORLD.OBJ
C:\USERS\DYLAN\DOCUMENTS\SWINBURNE\GP\BITBUCKET\12 - SPIKE - GAME GRAPHS FROM DATA\ZORKISH\DEBUG\ZORKISH.EXE
C:\USERS\DYLAN\DOCUMENTS\SWINBURNE\GP\BITBUCKET\12 - SPIKE - GAME GRAPHS FROM DATA\ZORKISH\DEBUG\ZORKISH.ILK
C:\USERS\DYLAN\DOCUMENTS\SWINBURNE\GP\BITBUCKET\12 - SPIKE - GAME GRAPHS FROM DATA\ZORKISH\DEBUG\ZORKISH.PDB
^C:\USERS\DYLAN\DOCUMENTS\SWINBURNE\GP\BITBUCKET\14 - SPIKE - COMMAND PATTERN\ZORKISH\ZORKISH\DEBUG\ABOUT.OBJ|C:\USERS\DYLAN\DOCUMENTS\SWINBURNE\GP\BITBUCKET\14 - SPIKE - COMMAND PATTERN\ZORKISH\ZORKISH\DEBUG\ALIASCOMMAND.OBJ|C:\USERS\DYLAN\DOCUMENTS\SWINBURNE\GP\BITBUCKET\14 - SPIKE - COMMAND PATTERN\ZORKISH\ZORKISH\DEBUG\COMMAND.OBJ|C:\USERS\DYLAN\DOCUMENTS\SWINBURNE\GP\BITBUCKET\14 - SPIKE - COMMAND PATTERN\ZORKISH\ZORKISH\DEBUG\COMMANDMANAGER.OBJ|C:\USERS\DYLAN\DOCUMENTS\SWINBURNE\GP\BITBUCKET\14 - SPIKE - COMMAND PATTERN\ZORKISH\ZORKISH\DEBUG\DEBUGTREECOMMAND.OBJ|C:\USERS\DYLAN\DOCUMENTS\SWINBURNE\GP\BITBUCKET\14 - SPIKE - COMMAND PATTERN\ZORKISH\ZORKISH\DEBUG\HELP.OBJ|C:\USERS\DYLAN\DOCUMENTS\SWINBURNE\GP\BITBUCKET\14 - SPIKE - COMMAND PATTERN\ZORKISH\ZORKISH\DEBUG\HELPCOMMAND.OBJ|C:\USERS\DYLAN\DOCUMENTS\SWINBURNE\GP\BITBUCKET\14 - SPIKE - COMMAND PATTERN\ZORKISH\ZORKISH\DEBUG\HIGHSCORE.OBJ|C:\USERS\DYLAN\DOCUMENTS\SWINBURNE\GP\BITBUCKET\14 - SPIKE - COMMAND PATTERN\ZORKISH\ZORKISH\DEBUG\HOF.OBJ|C:\USERS\DYLAN\DOCUMENTS\SWINBURNE\GP\BITBUCKET\14 - SPIKE - COMMAND PATTERN\ZORKISH\ZORKISH\DEBUG\INVENTORY.OBJ|C:\USERS\DYLAN\DOCUMENTS\SWINBURNE\GP\BITBUCKET\14 - SPIKE - COMMAND PATTERN\ZORKISH\ZORKISH\DEBUG\INVENTORYCOMMAND.OBJ|C:\USERS\DYLAN\DOCUMENTS\SWINBURNE\GP\BITBUCKET\14 - SPIKE - COMMAND PATTERN\ZORKISH\ZORKISH\DEBUG\ITEM.OBJ|C:\USERS\DYLAN\DOCUMENTS\SWINBURNE\GP\BITBUCKET\14 - SPIKE - COMMAND PATTERN\ZORKISH\ZORKISH\DEBUG\LOCATION.OBJ|C:\USERS\DYLAN\DOCUMENTS\SWINBURNE\GP\BITBUCKET\14 - SPIKE - COMMAND PATTERN\ZORKISH\ZORKISH\DEBUG\LOOKCOMMAND.OBJ|C:\USERS\DYLAN\DOCUMENTS\SWINBURNE\GP\BITBUCKET\14 - SPIKE - COMMAND PATTERN\ZORKISH\ZORKISH\DEBUG\MAIN.OBJ|C:\USERS\DYLAN\DOCUMENTS\SWINBURNE\GP\BITBUCKET\14 - SPIKE - COMMAND PATTERN\ZORKISH\ZORKISH\DEBUG\MAINMENU.OBJ|C:\USERS\DYLAN\DOCUMENTS\SWINBURNE\GP\BITBUCKET\14 - SPIKE - COMMAND PATTERN\ZORKISH\ZORKISH\DEBUG\PLAYER.OBJ|C:\USERS\DYLAN\DOCUMENTS\SWINBURNE\GP\BITBUCKET\14 - SPIKE - COMMAND PATTERN\ZORKISH\ZORKISH\DEBUG\SELECTADVENTURE.OBJ|C:\USERS\DYLAN\DOCUMENTS\SWINBURNE\GP\BITBUCKET\14 - SPIKE - COMMAND PATTERN\ZORKISH\ZORKISH\DEBUG\STAGE.OBJ|C:\USERS\DYLAN\DOCUMENTS\SWINBURNE\GP\BITBUCKET\14 - SPIKE - COMMAND PATTERN\ZORKISH\ZORKISH\DEBUG\STAGEMANAGER.OBJ|C:\USERS\DYLAN\DOCUMENTS\SWINBURNE\GP\BITBUCKET\14 - SPIKE - COMMAND PATTERN\ZORKISH\ZORKISH\DEBUG\WORLD.OBJ
C:\USERS\DYLAN\DOCUMENTS\SWINBURNE\GP\BITBUCKET\14 - SPIKE - COMMAND PATTERN\ZORKISH\DEBUG\ZORKISH.EXE
C:\USERS\DYLAN\DOCUMENTS\SWINBURNE\GP\BITBUCKET\14 - SPIKE - COMMAND PATTERN\ZORKISH\DEBUG\ZORKISH.ILK
C:\USERS\DYLAN\DOCUMENTS\SWINBURNE\GP\BITBUCKET\14 - SPIKE - COMMAND PATTERN\ZORKISH\DEBUG\ZORKISH.PDB
^C:\USERS\DYLAN\DOCUMENTS\SWINBURNE\GP\BITBUCKET\15 - SPIKE - COMPOSITE AND COMPONENT PATTERNS\ZORKISH\ZORKISH\DEBUG\ABOUT.OBJ|C:\USERS\DYLAN\DOCUMENTS\SWINBURNE\GP\BITBUCKET\15 - SPIKE - COMPOSITE AND COMPONENT PATTERNS\ZORKISH\ZORKISH\DEBUG\ALIASCOMMAND.OBJ|C:\USERS\DYLAN\DOCUMENTS\SWINBURNE\GP\BITBUCKET\15 - SPIKE - COMPOSITE AND COMPONENT PATTERNS\ZORKISH\ZORKISH\DEBUG\ATTACKCOMMAND.OBJ|C:\USERS\DYLAN\DOCUMENTS\SWINBURNE\GP\BITBUCKET\15 - SPIKE - COMPOSITE AND COMPONENT PATTERNS\ZORKISH\ZORKISH\DEBUG\COMMAND.OBJ|C:\USERS\DYLAN\DOCUMENTS\SWINBURNE\GP\BITBUCKET\15 - SPIKE - COMPOSITE AND COMPONENT PATTERNS\ZORKISH\ZORKISH\DEBUG\COMMANDMANAGER.OBJ|C:\USERS\DYLAN\DOCUMENTS\SWINBURNE\GP\BITBUCKET\15 - SPIKE - COMPOSITE AND COMPONENT PATTERNS\ZORKISH\ZORKISH\DEBUG\DAMAGE.OBJ|C:\USERS\DYLAN\DOCUMENTS\SWINBURNE\GP\BITBUCKET\15 - SPIKE - COMPOSITE AND COMPONENT PATTERNS\ZORKISH\ZORKISH\DEBUG\DEBUGTREECOMMAND.OBJ|C:\USERS\DYLAN\DOCUMENTS\SWINBURNE\GP\BITBUCKET\15 - SPIKE - COMPOSITE AND COMPONENT PATTERNS\ZORKISH\ZORKISH\DEBUG\HEALTH.OBJ|C:\USERS\DYLAN\DOCUMENTS\SWINBURNE\GP\BITBUCKET\15 - SPIKE - COMPOSITE AND COMPONENT PATTERNS\ZORKISH\ZORKISH\DEBUG\HELP.OBJ|C:\USERS\DYLAN\DOCUMENTS\SWINBURNE\GP\BITBUCKET\15 - SPIKE - COMPOSITE AND COMPONENT PATTERNS\ZORKISH\ZORKISH\DEBUG\HELPCOMMAND.OBJ|C:\USERS\DYLAN\DOCUMENTS\SWINBURNE\GP\BITBUCKET\15 - SPIKE - COMPOSITE AND COMPONENT PATTERNS\ZORKISH\ZORKISH\DEBUG\HIGHSCORE.OBJ|C:\USERS\DYLAN\DOCUMENTS\SWINBURNE\GP\BITBUCKET\15 - SPIKE - COMPOSITE AND COMPONENT PATTERNS\ZORKISH\ZORKISH\DEBUG\HOF.OBJ|C:\USERS\DYLAN\DOCUMENTS\SWINBURNE\GP\BITBUCKET\15 - SPIKE - COMPOSITE AND COMPONENT PATTERNS\ZORKISH\ZORKISH\DEBUG\INVENTORY.OBJ|C:\USERS\DYLAN\DOCUMENTS\SWINBURNE\GP\BITBUCKET\15 - SPIKE - COMPOSITE AND COMPONENT PATTERNS\ZORKISH\ZORKISH\DEBUG\INVENTORYCOMMAND.OBJ|C:\USERS\DYLAN\DOCUMENTS\SWINBURNE\GP\BITBUCKET\15 - SPIKE - COMPOSITE AND COMPONENT PATTERNS\ZORKISH\ZORKISH\DEBUG\ITEM.OBJ|C:\USERS\DYLAN\DOCUMENTS\SWINBURNE\GP\BITBUCKET\15 - SPIKE - COMPOSITE AND COMPONENT PATTERNS\ZORKISH\ZORKISH\DEBUG\LOCATION.OBJ|C:\USERS\DYLAN\DOCUMENTS\SWINBURNE\GP\BITBUCKET\15 - SPIKE - COMPOSITE AND COMPONENT PATTERNS\ZORKISH\ZORKISH\DEBUG\LOOKCOMMAND.OBJ|C:\USERS\DYLAN\DOCUMENTS\SWINBURNE\GP\BITBUCKET\15 - SPIKE - COMPOSITE AND COMPONENT PATTERNS\ZORKISH\ZORKISH\DEBUG\MAIN.OBJ|C:\USERS\DYLAN\DOCUMENTS\SWINBURNE\GP\BITBUCKET\15 - SPIKE - COMPOSITE AND COMPONENT PATTERNS\ZORKISH\ZORKISH\DEBUG\MAINMENU.OBJ|C:\USERS\DYLAN\DOCUMENTS\SWINBURNE\GP\BITBUCKET\15 - SPIKE - COMPOSITE AND COMPONENT PATTERNS\ZORKISH\ZORKISH\DEBUG\OPENCOMMAND.OBJ|C:\USERS\DYLAN\DOCUMENTS\SWINBURNE\GP\BITBUCKET\15 - SPIKE - COMPOSITE AND COMPONENT PATTERNS\ZORKISH\ZORKISH\DEBUG\PLAYER.OBJ|C:\USERS\DYLAN\DOCUMENTS\SWINBURNE\GP\BITBUCKET\15 - SPIKE - COMPOSITE AND COMPONENT PATTERNS\ZORKISH\ZORKISH\DEBUG\PUTCOMMAND.OBJ|C:\USERS\DYLAN\DOCUMENTS\SWINBURNE\GP\BITBUCKET\15 - SPIKE - COMPOSITE AND COMPONENT PATTERNS\ZORKISH\ZORKISH\DEBUG\SELECTADVENTURE.OBJ|C:\USERS\DYLAN\DOCUMENTS\SWINBURNE\GP\BITBUCKET\15 - SPIKE - COMPOSITE AND COMPONENT PATTERNS\ZORKISH\ZORKISH\DEBUG\STAGE.OBJ|C:\USERS\DYLAN\DOCUMENTS\SWINBURNE\GP\BITBUCKET\15 - SPIKE - COMPOSITE AND COMPONENT PATTERNS\ZORKISH\ZORKISH\DEBUG\STAGEMANAGER.OBJ|C:\USERS\DYLAN\DOCUMENTS\SWINBURNE\GP\BITBUCKET\15 - SPIKE - COMPOSITE AND COMPONENT PATTERNS\ZORKISH\ZORKISH\DEBUG\TAKECOMMAND.OBJ|C:\USERS\DYLAN\DOCUMENTS\SWINBURNE\GP\BITBUCKET\15 - SPIKE - COMPOSITE AND COMPONENT PATTERNS\ZORKISH\ZORKISH\DEBUG\WORLD.OBJ
C:\USERS\DYLAN\DOCUMENTS\SWINBURNE\GP\BITBUCKET\15 - SPIKE - COMPOSITE AND COMPONENT PATTERNS\ZORKISH\DEBUG\ZORKISH.EXE
C:\USERS\DYLAN\DOCUMENTS\SWINBURNE\GP\BITBUCKET\15 - SPIKE - COMPOSITE AND COMPONENT PATTERNS\ZORKISH\DEBUG\ZORKISH.ILK
C:\USERS\DYLAN\DOCUMENTS\SWINBURNE\GP\BITBUCKET\15 - SPIKE - COMPOSITE AND COMPONENT PATTERNS\ZORKISH\DEBUG\ZORKISH.PDB
^C:\USERS\DYLAN\DOCUMENTS\SWINBURNE\GP\BITBUCKET\18 - SPIKE - ANNOUNCEMENTS & BLACKBOARDS\ZORKISH\ZORKISH\DEBUG\ABOUT.OBJ|C:\USERS\DYLAN\DOCUMENTS\SWINBURNE\GP\BITBUCKET\18 - SPIKE - ANNOUNCEMENTS & BLACKBOARDS\ZORKISH\ZORKISH\DEBUG\ALIASCOMMAND.OBJ|C:\USERS\DYLAN\DOCUMENTS\SWINBURNE\GP\BITBUCKET\18 - SPIKE - ANNOUNCEMENTS & BLACKBOARDS\ZORKISH\ZORKISH\DEBUG\ATTACKCOMMAND.OBJ|C:\USERS\DYLAN\DOCUMENTS\SWINBURNE\GP\BITBUCKET\18 - SPIKE - ANNOUNCEMENTS & BLACKBOARDS\ZORKISH\ZORKISH\DEBUG\COMMAND.OBJ|C:\USERS\DYLAN\DOCUMENTS\SWINBURNE\GP\BITBUCKET\18 - SPIKE - ANNOUNCEMENTS & BLACKBOARDS\ZORKISH\ZORKISH\DEBUG\COMMANDMANAGER.OBJ|C:\USERS\DYLAN\DOCUMENTS\SWINBURNE\GP\BITBUCKET\18 - SPIKE - ANNOUNCEMENTS & BLACKBOARDS\ZORKISH\ZORKISH\DEBUG\DAMAGE.OBJ|C:\USERS\DYLAN\DOCUMENTS\SWINBURNE\GP\BITBUCKET\18 - SPIKE - ANNOUNCEMENTS & BLACKBOARDS\ZORKISH\ZORKISH\DEBUG\DEBUGTREECOMMAND.OBJ|C:\USERS\DYLAN\DOCUMENTS\SWINBURNE\GP\BITBUCKET\18 - SPIKE - ANNOUNCEMENTS & BLACKBOARDS\ZORKISH\ZORKISH\DEBUG\HEALTH.OBJ|C:\USERS\DYLAN\DOCUMENTS\SWINBURNE\GP\BITBUCKET\18 - SPIKE - ANNOUNCEMENTS & BLACKBOARDS\ZORKISH\ZORKISH\DEBUG\HELP.OBJ|C:\USERS\DYLAN\DOCUMENTS\SWINBURNE\GP\BITBUCKET\18 - SPIKE - ANNOUNCEMENTS & BLACKBOARDS\ZORKISH\ZORKISH\DEBUG\HELPCOMMAND.OBJ|C:\USERS\DYLAN\DOCUMENTS\SWINBURNE\GP\BITBUCKET\18 - SPIKE - ANNOUNCEMENTS & BLACKBOARDS\ZORKISH\ZORKISH\DEBUG\HIGHSCORE.OBJ|C:\USERS\DYLAN\DOCUMENTS\SWINBURNE\GP\BITBUCKET\18 - SPIKE - ANNOUNCEMENTS & BLACKBOARDS\ZORKISH\ZORKISH\DEBUG\HOF.OBJ|C:\USERS\DYLAN\DOCUMENTS\SWINBURNE\GP\BITBUCKET\18 - SPIKE - ANNOUNCEMENTS & BLACKBOARDS\ZORKISH\ZORKISH\DEBUG\INVENTORY.OBJ|C:\USERS\DYLAN\DOCUMENTS\SWINBURNE\GP\BITBUCKET\18 - SPIKE - ANNOUNCEMENTS & BLACKBOARDS\ZORKISH\ZORKISH\DEBUG\INVENTORYCOMMAND.OBJ|C:\USERS\DYLAN\DOCUMENTS\SWINBURNE\GP\BITBUCKET\18 - SPIKE - ANNOUNCEMENTS & BLACKBOARDS\ZORKISH\ZORKISH\DEBUG\ITEM.OBJ|C:\USERS\DYLAN\DOCUMENTS\SWINBURNE\GP\BITBUCKET\18 - SPIKE - ANNOUNCEMENTS & BLACKBOARDS\ZORKISH\ZORKISH\DEBUG\LOCATION.OBJ|C:\USERS\DYLAN\DOCUMENTS\SWINBURNE\GP\BITBUCKET\18 - SPIKE - ANNOUNCEMENTS & BLACKBOARDS\ZORKISH\ZORKISH\DEBUG\LOOKCOMMAND.OBJ|C:\USERS\DYLAN\DOCUMENTS\SWINBURNE\GP\BITBUCKET\18 - SPIKE - ANNOUNCEMENTS & BLACKBOARDS\ZORKISH\ZORKISH\DEBUG\MAIN.OBJ|C:\USERS\DYLAN\DOCUMENTS\SWINBURNE\GP\BITBUCKET\18 - SPIKE - ANNOUNCEMENTS & BLACKBOARDS\ZORKISH\ZORKISH\DEBUG\MAINMENU.OBJ|C:\USERS\DYLAN\DOCUMENTS\SWINBURNE\GP\BITBUCKET\18 - SPIKE - ANNOUNCEMENTS & BLACKBOARDS\ZORKISH\ZORKISH\DEBUG\MESSAGE.OBJ|C:\USERS\DYLAN\DOCUMENTS\SWINBURNE\GP\BITBUCKET\18 - SPIKE - ANNOUNCEMENTS & BLACKBOARDS\ZORKISH\ZORKISH\DEBUG\MESSAGESYSTEM.OBJ|C:\USERS\DYLAN\DOCUMENTS\SWINBURNE\GP\BITBUCKET\18 - SPIKE - ANNOUNCEMENTS & BLACKBOARDS\ZORKISH\ZORKISH\DEBUG\OPENCOMMAND.OBJ|C:\USERS\DYLAN\DOCUMENTS\SWINBURNE\GP\BITBUCKET\18 - SPIKE - ANNOUNCEMENTS & BLACKBOARDS\ZORKISH\ZORKISH\DEBUG\PLAYER.OBJ|C:\USERS\DYLAN\DOCUMENTS\SWINBURNE\GP\BITBUCKET\18 - SPIKE - ANNOUNCEMENTS & BLACKBOARDS\ZORKISH\ZORKISH\DEBUG\PUTCOMMAND.OBJ|C:\USERS\DYLAN\DOCUMENTS\SWINBURNE\GP\BITBUCKET\18 - SPIKE - ANNOUNCEMENTS & BLACKBOARDS\ZORKISH\ZORKISH\DEBUG\SELECTADVENTURE.OBJ|C:\USERS\DYLAN\DOCUMENTS\SWINBURNE\GP\BITBUCKET\18 - SPIKE - ANNOUNCEMENTS & BLACKBOARDS\ZORKISH\ZORKISH\DEBUG\STAGE.OBJ|C:\USERS\DYLAN\DOCUMENTS\SWINBURNE\GP\BITBUCKET\18 - SPIKE - ANNOUNCEMENTS & BLACKBOARDS\ZORKISH\ZORKISH\DEBUG\STAGEMANAGER.OBJ|C:\USERS\DYLAN\DOCUMENTS\SWINBURNE\GP\BITBUCKET\18 - SPIKE - ANNOUNCEMENTS & BLACKBOARDS\ZORKISH\ZORKISH\DEBUG\TAKECOMMAND.OBJ|C:\USERS\DYLAN\DOCUMENTS\SWINBURNE\GP\BITBUCKET\18 - SPIKE - ANNOUNCEMENTS & BLACKBOARDS\ZORKISH\ZORKISH\DEBUG\WORLD.OBJ
C:\USERS\DYLAN\DOCUMENTS\SWINBURNE\GP\BITBUCKET\18 - SPIKE - ANNOUNCEMENTS & BLACKBOARDS\ZORKISH\DEBUG\ZORKISH.EXE
C:\USERS\DYLAN\DOCUMENTS\SWINBURNE\GP\BITBUCKET\18 - SPIKE - ANNOUNCEMENTS & BLACKBOARDS\ZORKISH\DEBUG\ZORKISH.ILK
C:\USERS\DYLAN\DOCUMENTS\SWINBURNE\GP\BITBUCKET\18 - SPIKE - ANNOUNCEMENTS & BLACKBOARDS\ZORKISH\DEBUG\ZORKISH.PDB
