^C:\USERS\DYLAN\DOCUMENTS\SWINBURNE\GP\BITBUCKET\03 - SPIKE - GRIDWORLD\GRIDWORLD\GRIDWORLD\MAIN.CPP
/c /ZI /nologo /W3 /WX- /diagnostics:classic /sdl /Od /Oy- /D _MBCS /Gm- /EHsc /RTC1 /MDd /GS /fp:precise /permissive- /Zc:wchar_t /Zc:forScope /Zc:inline /Fo"DEBUG\\" /Fd"DEBUG\VC141.PDB" /Gd /TP /analyze- /FC C:\USERS\DYLAN\DOCUMENTS\SWINBURNE\GP\BITBUCKET\03 - SPIKE - GRIDWORLD\GRIDWORLD\GRIDWORLD\MAIN.CPP
^C:\USERS\DYLAN\DOCUMENTS\SWINBURNE\GP\BITBUCKET\04 - SPIKE (EXT) - GRIDWORLD MULTI-THREADED\GRIDWORLD\GRIDWORLD\MAIN.CPP
/c /ZI /nologo /W3 /WX- /diagnostics:classic /sdl /Od /Oy- /D _MBCS /Gm- /EHsc /RTC1 /MDd /GS /fp:precise /permissive- /Zc:wchar_t /Zc:forScope /Zc:inline /Fo"DEBUG\\" /Fd"DEBUG\VC141.PDB" /Gd /TP /analyze- /FC C:\USERS\DYLAN\DOCUMENTS\SWINBURNE\GP\BITBUCKET\04 - SPIKE (EXT) - GRIDWORLD MULTI-THREADED\GRIDWORLD\GRIDWORLD\MAIN.CPP
