^C:\USERS\DYLAN\DOCUMENTS\SWINBURNE\GP\BITBUCKET\03 - SPIKE - GRIDWORLD\GRIDWORLD\GRIDWORLD\MAIN.CPP
C:\USERS\DYLAN\DOCUMENTS\SWINBURNE\GP\BITBUCKET\03 - SPIKE - GRIDWORLD\GRIDWORLD\GRIDWORLD\DEBUG\VC141.PDB
C:\USERS\DYLAN\DOCUMENTS\SWINBURNE\GP\BITBUCKET\03 - SPIKE - GRIDWORLD\GRIDWORLD\GRIDWORLD\DEBUG\VC141.IDB
C:\USERS\DYLAN\DOCUMENTS\SWINBURNE\GP\BITBUCKET\03 - SPIKE - GRIDWORLD\GRIDWORLD\GRIDWORLD\DEBUG\MAIN.OBJ
^C:\USERS\DYLAN\DOCUMENTS\SWINBURNE\GP\BITBUCKET\04 - SPIKE (EXT) - GRIDWORLD MULTI-THREADED\GRIDWORLD\GRIDWORLD\MAIN.CPP
C:\USERS\DYLAN\DOCUMENTS\SWINBURNE\GP\BITBUCKET\04 - SPIKE (EXT) - GRIDWORLD MULTI-THREADED\GRIDWORLD\GRIDWORLD\DEBUG\VC141.PDB
C:\USERS\DYLAN\DOCUMENTS\SWINBURNE\GP\BITBUCKET\04 - SPIKE (EXT) - GRIDWORLD MULTI-THREADED\GRIDWORLD\GRIDWORLD\DEBUG\VC141.IDB
C:\USERS\DYLAN\DOCUMENTS\SWINBURNE\GP\BITBUCKET\04 - SPIKE (EXT) - GRIDWORLD MULTI-THREADED\GRIDWORLD\GRIDWORLD\DEBUG\MAIN.OBJ
