^C:\USERS\DYLAN\DOCUMENTS\SWINBURNE\GP\BITBUCKET\03 - SPIKE - GRIDWORLD\GRIDWORLD\GRIDWORLD\DEBUG\MAIN.OBJ
/OUT:"C:\USERS\DYLAN\DOCUMENTS\SWINBURNE\GP\BITBUCKET\03 - SPIKE - GRIDWORLD\GRIDWORLD\DEBUG\GRIDWORLD.EXE" /INCREMENTAL /NOLOGO KERNEL32.LIB USER32.LIB GDI32.LIB WINSPOOL.LIB COMDLG32.LIB ADVAPI32.LIB SHELL32.LIB OLE32.LIB OLEAUT32.LIB UUID.LIB ODBC32.LIB ODBCCP32.LIB /MANIFEST /MANIFESTUAC:"level='asInvoker' uiAccess='false'" /manifest:embed /DEBUG:FASTLINK /PDB:"C:\USERS\DYLAN\DOCUMENTS\SWINBURNE\GP\BITBUCKET\03 - SPIKE - GRIDWORLD\GRIDWORLD\DEBUG\GRIDWORLD.PDB" /SUBSYSTEM:CONSOLE /TLBID:1 /DYNAMICBASE /NXCOMPAT /IMPLIB:"C:\USERS\DYLAN\DOCUMENTS\SWINBURNE\GP\BITBUCKET\03 - SPIKE - GRIDWORLD\GRIDWORLD\DEBUG\GRIDWORLD.LIB" /MACHINE:X86 DEBUG\MAIN.OBJ
^C:\USERS\DYLAN\DOCUMENTS\SWINBURNE\GP\BITBUCKET\04 - SPIKE (EXT) - GRIDWORLD MULTI-THREADED\GRIDWORLD\GRIDWORLD\DEBUG\MAIN.OBJ
/OUT:"C:\USERS\DYLAN\DOCUMENTS\SWINBURNE\GP\BITBUCKET\04 - SPIKE (EXT) - GRIDWORLD MULTI-THREADED\GRIDWORLD\DEBUG\GRIDWORLD.EXE" /INCREMENTAL /NOLOGO KERNEL32.LIB USER32.LIB GDI32.LIB WINSPOOL.LIB COMDLG32.LIB ADVAPI32.LIB SHELL32.LIB OLE32.LIB OLEAUT32.LIB UUID.LIB ODBC32.LIB ODBCCP32.LIB /MANIFEST /MANIFESTUAC:"level='asInvoker' uiAccess='false'" /manifest:embed /DEBUG:FASTLINK /PDB:"C:\USERS\DYLAN\DOCUMENTS\SWINBURNE\GP\BITBUCKET\04 - SPIKE (EXT) - GRIDWORLD MULTI-THREADED\GRIDWORLD\DEBUG\GRIDWORLD.PDB" /SUBSYSTEM:CONSOLE /TLBID:1 /DYNAMICBASE /NXCOMPAT /IMPLIB:"C:\USERS\DYLAN\DOCUMENTS\SWINBURNE\GP\BITBUCKET\04 - SPIKE (EXT) - GRIDWORLD MULTI-THREADED\GRIDWORLD\DEBUG\GRIDWORLD.LIB" /MACHINE:X86 DEBUG\MAIN.OBJ
