^C:\USERS\DYLAN\DOCUMENTS\SWINBURNE\GP\BITBUCKET\12 - SPIKE - GAME GRAPHS FROM DATA\ZORKISH\ZORKISH\DEBUG\ABOUT.OBJ|C:\USERS\DYLAN\DOCUMENTS\SWINBURNE\GP\BITBUCKET\12 - SPIKE - GAME GRAPHS FROM DATA\ZORKISH\ZORKISH\DEBUG\HELP.OBJ|C:\USERS\DYLAN\DOCUMENTS\SWINBURNE\GP\BITBUCKET\12 - SPIKE - GAME GRAPHS FROM DATA\ZORKISH\ZORKISH\DEBUG\HIGHSCORE.OBJ|C:\USERS\DYLAN\DOCUMENTS\SWINBURNE\GP\BITBUCKET\12 - SPIKE - GAME GRAPHS FROM DATA\ZORKISH\ZORKISH\DEBUG\HOF.OBJ|C:\USERS\DYLAN\DOCUMENTS\SWINBURNE\GP\BITBUCKET\12 - SPIKE - GAME GRAPHS FROM DATA\ZORKISH\ZORKISH\DEBUG\LOCATION.OBJ|C:\USERS\DYLAN\DOCUMENTS\SWINBURNE\GP\BITBUCKET\12 - SPIKE - GAME GRAPHS FROM DATA\ZORKISH\ZORKISH\DEBUG\MAIN.OBJ|C:\USERS\DYLAN\DOCUMENTS\SWINBURNE\GP\BITBUCKET\12 - SPIKE - GAME GRAPHS FROM DATA\ZORKISH\ZORKISH\DEBUG\MAINMENU.OBJ|C:\USERS\DYLAN\DOCUMENTS\SWINBURNE\GP\BITBUCKET\12 - SPIKE - GAME GRAPHS FROM DATA\ZORKISH\ZORKISH\DEBUG\PLAYER.OBJ|C:\USERS\DYLAN\DOCUMENTS\SWINBURNE\GP\BITBUCKET\12 - SPIKE - GAME GRAPHS FROM DATA\ZORKISH\ZORKISH\DEBUG\SELECTADVENTURE.OBJ|C:\USERS\DYLAN\DOCUMENTS\SWINBURNE\GP\BITBUCKET\12 - SPIKE - GAME GRAPHS FROM DATA\ZORKISH\ZORKISH\DEBUG\STAGE.OBJ|C:\USERS\DYLAN\DOCUMENTS\SWINBURNE\GP\BITBUCKET\12 - SPIKE - GAME GRAPHS FROM DATA\ZORKISH\ZORKISH\DEBUG\STAGEMANAGER.OBJ|C:\USERS\DYLAN\DOCUMENTS\SWINBURNE\GP\BITBUCKET\12 - SPIKE - GAME GRAPHS FROM DATA\ZORKISH\ZORKISH\DEBUG\WORLD.OBJ
C:\USERS\DYLAN\DOCUMENTS\SWINBURNE\GP\BITBUCKET\12 - SPIKE - GAME GRAPHS FROM DATA\ZORKISH\DEBUG\ZORKISH.EXE
C:\USERS\DYLAN\DOCUMENTS\SWINBURNE\GP\BITBUCKET\12 - SPIKE - GAME GRAPHS FROM DATA\ZORKISH\DEBUG\ZORKISH.ILK
C:\USERS\DYLAN\DOCUMENTS\SWINBURNE\GP\BITBUCKET\12 - SPIKE - GAME GRAPHS FROM DATA\ZORKISH\DEBUG\ZORKISH.PDB
^C:\USERS\DYLAN\DOCUMENTS\SWINBURNE\GP\BITBUCKET\14 - SPIKE - COMMAND PATTERN\ZORKISH\ZORKISH\DEBUG\ABOUT.OBJ|C:\USERS\DYLAN\DOCUMENTS\SWINBURNE\GP\BITBUCKET\14 - SPIKE - COMMAND PATTERN\ZORKISH\ZORKISH\DEBUG\ALIASCOMMAND.OBJ|C:\USERS\DYLAN\DOCUMENTS\SWINBURNE\GP\BITBUCKET\14 - SPIKE - COMMAND PATTERN\ZORKISH\ZORKISH\DEBUG\COMMAND.OBJ|C:\USERS\DYLAN\DOCUMENTS\SWINBURNE\GP\BITBUCKET\14 - SPIKE - COMMAND PATTERN\ZORKISH\ZORKISH\DEBUG\COMMANDMANAGER.OBJ|C:\USERS\DYLAN\DOCUMENTS\SWINBURNE\GP\BITBUCKET\14 - SPIKE - COMMAND PATTERN\ZORKISH\ZORKISH\DEBUG\DEBUGTREECOMMAND.OBJ|C:\USERS\DYLAN\DOCUMENTS\SWINBURNE\GP\BITBUCKET\14 - SPIKE - COMMAND PATTERN\ZORKISH\ZORKISH\DEBUG\HELP.OBJ|C:\USERS\DYLAN\DOCUMENTS\SWINBURNE\GP\BITBUCKET\14 - SPIKE - COMMAND PATTERN\ZORKISH\ZORKISH\DEBUG\HELPCOMMAND.OBJ|C:\USERS\DYLAN\DOCUMENTS\SWINBURNE\GP\BITBUCKET\14 - SPIKE - COMMAND PATTERN\ZORKISH\ZORKISH\DEBUG\HIGHSCORE.OBJ|C:\USERS\DYLAN\DOCUMENTS\SWINBURNE\GP\BITBUCKET\14 - SPIKE - COMMAND PATTERN\ZORKISH\ZORKISH\DEBUG\HOF.OBJ|C:\USERS\DYLAN\DOCUMENTS\SWINBURNE\GP\BITBUCKET\14 - SPIKE - COMMAND PATTERN\ZORKISH\ZORKISH\DEBUG\INVENTORY.OBJ|C:\USERS\DYLAN\DOCUMENTS\SWINBURNE\GP\BITBUCKET\14 - SPIKE - COMMAND PATTERN\ZORKISH\ZORKISH\DEBUG\INVENTORYCOMMAND.OBJ|C:\USERS\DYLAN\DOCUMENTS\SWINBURNE\GP\BITBUCKET\14 - SPIKE - COMMAND PATTERN\ZORKISH\ZORKISH\DEBUG\ITEM.OBJ|C:\USERS\DYLAN\DOCUMENTS\SWINBURNE\GP\BITBUCKET\14 - SPIKE - COMMAND PATTERN\ZORKISH\ZORKISH\DEBUG\LOCATION.OBJ|C:\USERS\DYLAN\DOCUMENTS\SWINBURNE\GP\BITBUCKET\14 - SPIKE - COMMAND PATTERN\ZORKISH\ZORKISH\DEBUG\LOOKCOMMAND.OBJ|C:\USERS\DYLAN\DOCUMENTS\SWINBURNE\GP\BITBUCKET\14 - SPIKE - COMMAND PATTERN\ZORKISH\ZORKISH\DEBUG\MAIN.OBJ|C:\USERS\DYLAN\DOCUMENTS\SWINBURNE\GP\BITBUCKET\14 - SPIKE - COMMAND PATTERN\ZORKISH\ZORKISH\DEBUG\MAINMENU.OBJ|C:\USERS\DYLAN\DOCUMENTS\SWINBURNE\GP\BITBUCKET\14 - SPIKE - COMMAND PATTERN\ZORKISH\ZORKISH\DEBUG\PLAYER.OBJ|C:\USERS\DYLAN\DOCUMENTS\SWINBURNE\GP\BITBUCKET\14 - SPIKE - COMMAND PATTERN\ZORKISH\ZORKISH\DEBUG\SELECTADVENTURE.OBJ|C:\USERS\DYLAN\DOCUMENTS\SWINBURNE\GP\BITBUCKET\14 - SPIKE - COMMAND PATTERN\ZORKISH\ZORKISH\DEBUG\STAGE.OBJ|C:\USERS\DYLAN\DOCUMENTS\SWINBURNE\GP\BITBUCKET\14 - SPIKE - COMMAND PATTERN\ZORKISH\ZORKISH\DEBUG\STAGEMANAGER.OBJ|C:\USERS\DYLAN\DOCUMENTS\SWINBURNE\GP\BITBUCKET\14 - SPIKE - COMMAND PATTERN\ZORKISH\ZORKISH\DEBUG\WORLD.OBJ
C:\USERS\DYLAN\DOCUMENTS\SWINBURNE\GP\BITBUCKET\14 - SPIKE - COMMAND PATTERN\ZORKISH\DEBUG\ZORKISH.EXE
C:\USERS\DYLAN\DOCUMENTS\SWINBURNE\GP\BITBUCKET\14 - SPIKE - COMMAND PATTERN\ZORKISH\DEBUG\ZORKISH.ILK
C:\USERS\DYLAN\DOCUMENTS\SWINBURNE\GP\BITBUCKET\14 - SPIKE - COMMAND PATTERN\ZORKISH\DEBUG\ZORKISH.PDB
