^C:\USERS\DYLAN\DOCUMENTS\SWINBURNE\GP\BITBUCKET\07 - LAB - DATA STRUCTURE BASICS\DATASTRUCTURES\DATASTRUCTURES\DEBUG\DATASTRUCTURES.OBJ|C:\USERS\DYLAN\DOCUMENTS\SWINBURNE\GP\BITBUCKET\07 - LAB - DATA STRUCTURE BASICS\DATASTRUCTURES\DATASTRUCTURES\DEBUG\STDAFX.OBJ
C:\USERS\DYLAN\DOCUMENTS\SWINBURNE\GP\BITBUCKET\07 - LAB - DATA STRUCTURE BASICS\DATASTRUCTURES\DEBUG\DATASTRUCTURES.EXE
C:\USERS\DYLAN\DOCUMENTS\SWINBURNE\GP\BITBUCKET\07 - LAB - DATA STRUCTURE BASICS\DATASTRUCTURES\DEBUG\DATASTRUCTURES.ILK
C:\USERS\DYLAN\DOCUMENTS\SWINBURNE\GP\BITBUCKET\07 - LAB - DATA STRUCTURE BASICS\DATASTRUCTURES\DEBUG\DATASTRUCTURES.PDB
