^C:\USERS\DYLAN\DOCUMENTS\SWINBURNE\GP\BITBUCKET\04 - SPIKE (EXT) - GRIDWORLD MULTI-THREADED\THREADTESTING\THREADTESTING\SOURCE.CPP
C:\USERS\DYLAN\DOCUMENTS\SWINBURNE\GP\BITBUCKET\04 - SPIKE (EXT) - GRIDWORLD MULTI-THREADED\THREADTESTING\THREADTESTING\DEBUG\VC141.PDB
C:\USERS\DYLAN\DOCUMENTS\SWINBURNE\GP\BITBUCKET\04 - SPIKE (EXT) - GRIDWORLD MULTI-THREADED\THREADTESTING\THREADTESTING\DEBUG\VC141.IDB
C:\USERS\DYLAN\DOCUMENTS\SWINBURNE\GP\BITBUCKET\04 - SPIKE (EXT) - GRIDWORLD MULTI-THREADED\THREADTESTING\THREADTESTING\DEBUG\SOURCE.OBJ
