^C:\USERS\DYLAN\DOCUMENTS\SWINBURNE\GP\BITBUCKET\04 - SPIKE (EXT) - GRIDWORLD MULTI-THREADED\THREADTESTING\THREADTESTING\DEBUG\SOURCE.OBJ
C:\USERS\DYLAN\DOCUMENTS\SWINBURNE\GP\BITBUCKET\04 - SPIKE (EXT) - GRIDWORLD MULTI-THREADED\THREADTESTING\DEBUG\THREADTESTING.EXE
C:\USERS\DYLAN\DOCUMENTS\SWINBURNE\GP\BITBUCKET\04 - SPIKE (EXT) - GRIDWORLD MULTI-THREADED\THREADTESTING\DEBUG\THREADTESTING.ILK
C:\USERS\DYLAN\DOCUMENTS\SWINBURNE\GP\BITBUCKET\04 - SPIKE (EXT) - GRIDWORLD MULTI-THREADED\THREADTESTING\DEBUG\THREADTESTING.PDB
