^C:\USERS\DYLAN\DOCUMENTS\SWINBURNE\GP\WEEK1\TASK2\PROJECT1\DEBUG\MAIN.OBJ|C:\USERS\DYLAN\DOCUMENTS\SWINBURNE\GP\WEEK1\TASK2\PROJECT1\DEBUG\TESTCLASS.OBJ
C:\USERS\DYLAN\DOCUMENTS\SWINBURNE\GP\WEEK1\TASK2\DEBUG\PROJECT1.ILK
C:\USERS\DYLAN\DOCUMENTS\SWINBURNE\GP\WEEK1\TASK2\DEBUG\PROJECT1.EXE
C:\USERS\DYLAN\DOCUMENTS\SWINBURNE\GP\WEEK1\TASK2\DEBUG\PROJECT1.PDB
^C:\USERS\DYLAN\DOCUMENTS\SWINBURNE\GP\BITBUCKET\01 - C++ FOR BEGINNERS\TASK2\PROJECT1\DEBUG\MAIN.OBJ|C:\USERS\DYLAN\DOCUMENTS\SWINBURNE\GP\BITBUCKET\01 - C++ FOR BEGINNERS\TASK2\PROJECT1\DEBUG\TESTCLASS.OBJ
C:\USERS\DYLAN\DOCUMENTS\SWINBURNE\GP\BITBUCKET\01 - C++ FOR BEGINNERS\TASK2\DEBUG\PROJECT1.ILK
C:\USERS\DYLAN\DOCUMENTS\SWINBURNE\GP\BITBUCKET\01 - C++ FOR BEGINNERS\TASK2\DEBUG\PROJECT1.EXE
C:\USERS\DYLAN\DOCUMENTS\SWINBURNE\GP\BITBUCKET\01 - C++ FOR BEGINNERS\TASK2\DEBUG\PROJECT1.PDB
