^C:\USERS\DYLAN\DOCUMENTS\SWINBURNE\GP\BITBUCKET\12 - SPIKE - GAME GRAPHS FROM DATA\ZORKISH\ZORKISH\TESTWORLD.CPP
/c /ZI /nologo /W3 /WX- /diagnostics:classic /sdl /Od /Oy- /D _MBCS /Gm- /EHsc /RTC1 /MDd /GS /fp:precise /permissive- /Zc:wchar_t /Zc:forScope /Zc:inline /Fo"DEBUG\\" /Fd"DEBUG\VC141.PDB" /Gd /TP /analyze- /FC C:\USERS\DYLAN\DOCUMENTS\SWINBURNE\GP\BITBUCKET\12 - SPIKE - GAME GRAPHS FROM DATA\ZORKISH\ZORKISH\TESTWORLD.CPP
^C:\USERS\DYLAN\DOCUMENTS\SWINBURNE\GP\BITBUCKET\12 - SPIKE - GAME GRAPHS FROM DATA\ZORKISH\ZORKISH\LOCATION.CPP
/c /ZI /nologo /W3 /WX- /diagnostics:classic /sdl /Od /Oy- /D _MBCS /Gm- /EHsc /RTC1 /MDd /GS /fp:precise /permissive- /Zc:wchar_t /Zc:forScope /Zc:inline /Fo"DEBUG\\" /Fd"DEBUG\VC141.PDB" /Gd /TP /analyze- /FC C:\USERS\DYLAN\DOCUMENTS\SWINBURNE\GP\BITBUCKET\12 - SPIKE - GAME GRAPHS FROM DATA\ZORKISH\ZORKISH\LOCATION.CPP
^C:\USERS\DYLAN\DOCUMENTS\SWINBURNE\GP\BITBUCKET\12 - SPIKE - GAME GRAPHS FROM DATA\ZORKISH\ZORKISH\PLAYER.CPP
/c /ZI /nologo /W3 /WX- /diagnostics:classic /sdl /Od /Oy- /D _MBCS /Gm- /EHsc /RTC1 /MDd /GS /fp:precise /permissive- /Zc:wchar_t /Zc:forScope /Zc:inline /Fo"DEBUG\\" /Fd"DEBUG\VC141.PDB" /Gd /TP /analyze- /FC C:\USERS\DYLAN\DOCUMENTS\SWINBURNE\GP\BITBUCKET\12 - SPIKE - GAME GRAPHS FROM DATA\ZORKISH\ZORKISH\PLAYER.CPP
^C:\USERS\DYLAN\DOCUMENTS\SWINBURNE\GP\BITBUCKET\12 - SPIKE - GAME GRAPHS FROM DATA\ZORKISH\ZORKISH\STAGE.CPP
/c /ZI /nologo /W3 /WX- /diagnostics:classic /sdl /Od /Oy- /D _MBCS /Gm- /EHsc /RTC1 /MDd /GS /fp:precise /permissive- /Zc:wchar_t /Zc:forScope /Zc:inline /Fo"DEBUG\\" /Fd"DEBUG\VC141.PDB" /Gd /TP /analyze- /FC C:\USERS\DYLAN\DOCUMENTS\SWINBURNE\GP\BITBUCKET\12 - SPIKE - GAME GRAPHS FROM DATA\ZORKISH\ZORKISH\STAGE.CPP
^C:\USERS\DYLAN\DOCUMENTS\SWINBURNE\GP\BITBUCKET\12 - SPIKE - GAME GRAPHS FROM DATA\ZORKISH\ZORKISH\ABOUT.CPP
/c /ZI /nologo /W3 /WX- /diagnostics:classic /sdl /Od /Oy- /D _MBCS /Gm- /EHsc /RTC1 /MDd /GS /fp:precise /permissive- /Zc:wchar_t /Zc:forScope /Zc:inline /Fo"DEBUG\\" /Fd"DEBUG\VC141.PDB" /Gd /TP /analyze- /FC C:\USERS\DYLAN\DOCUMENTS\SWINBURNE\GP\BITBUCKET\12 - SPIKE - GAME GRAPHS FROM DATA\ZORKISH\ZORKISH\ABOUT.CPP
^C:\USERS\DYLAN\DOCUMENTS\SWINBURNE\GP\BITBUCKET\12 - SPIKE - GAME GRAPHS FROM DATA\ZORKISH\ZORKISH\HOF.CPP
/c /ZI /nologo /W3 /WX- /diagnostics:classic /sdl /Od /Oy- /D _MBCS /Gm- /EHsc /RTC1 /MDd /GS /fp:precise /permissive- /Zc:wchar_t /Zc:forScope /Zc:inline /Fo"DEBUG\\" /Fd"DEBUG\VC141.PDB" /Gd /TP /analyze- /FC C:\USERS\DYLAN\DOCUMENTS\SWINBURNE\GP\BITBUCKET\12 - SPIKE - GAME GRAPHS FROM DATA\ZORKISH\ZORKISH\HOF.CPP
^C:\USERS\DYLAN\DOCUMENTS\SWINBURNE\GP\BITBUCKET\12 - SPIKE - GAME GRAPHS FROM DATA\ZORKISH\ZORKISH\HELP.CPP
/c /ZI /nologo /W3 /WX- /diagnostics:classic /sdl /Od /Oy- /D _MBCS /Gm- /EHsc /RTC1 /MDd /GS /fp:precise /permissive- /Zc:wchar_t /Zc:forScope /Zc:inline /Fo"DEBUG\\" /Fd"DEBUG\VC141.PDB" /Gd /TP /analyze- /FC C:\USERS\DYLAN\DOCUMENTS\SWINBURNE\GP\BITBUCKET\12 - SPIKE - GAME GRAPHS FROM DATA\ZORKISH\ZORKISH\HELP.CPP
^C:\USERS\DYLAN\DOCUMENTS\SWINBURNE\GP\BITBUCKET\12 - SPIKE - GAME GRAPHS FROM DATA\ZORKISH\ZORKISH\HIGHSCORE.CPP
/c /ZI /nologo /W3 /WX- /diagnostics:classic /sdl /Od /Oy- /D _MBCS /Gm- /EHsc /RTC1 /MDd /GS /fp:precise /permissive- /Zc:wchar_t /Zc:forScope /Zc:inline /Fo"DEBUG\\" /Fd"DEBUG\VC141.PDB" /Gd /TP /analyze- /FC C:\USERS\DYLAN\DOCUMENTS\SWINBURNE\GP\BITBUCKET\12 - SPIKE - GAME GRAPHS FROM DATA\ZORKISH\ZORKISH\HIGHSCORE.CPP
^C:\USERS\DYLAN\DOCUMENTS\SWINBURNE\GP\BITBUCKET\12 - SPIKE - GAME GRAPHS FROM DATA\ZORKISH\ZORKISH\MAINMENU.CPP
/c /ZI /nologo /W3 /WX- /diagnostics:classic /sdl /Od /Oy- /D _MBCS /Gm- /EHsc /RTC1 /MDd /GS /fp:precise /permissive- /Zc:wchar_t /Zc:forScope /Zc:inline /Fo"DEBUG\\" /Fd"DEBUG\VC141.PDB" /Gd /TP /analyze- /FC C:\USERS\DYLAN\DOCUMENTS\SWINBURNE\GP\BITBUCKET\12 - SPIKE - GAME GRAPHS FROM DATA\ZORKISH\ZORKISH\MAINMENU.CPP
^C:\USERS\DYLAN\DOCUMENTS\SWINBURNE\GP\BITBUCKET\12 - SPIKE - GAME GRAPHS FROM DATA\ZORKISH\ZORKISH\SELECTADVENTURE.CPP
/c /ZI /nologo /W3 /WX- /diagnostics:classic /sdl /Od /Oy- /D _MBCS /Gm- /EHsc /RTC1 /MDd /GS /fp:precise /permissive- /Zc:wchar_t /Zc:forScope /Zc:inline /Fo"DEBUG\\" /Fd"DEBUG\VC141.PDB" /Gd /TP /analyze- /FC C:\USERS\DYLAN\DOCUMENTS\SWINBURNE\GP\BITBUCKET\12 - SPIKE - GAME GRAPHS FROM DATA\ZORKISH\ZORKISH\SELECTADVENTURE.CPP
^C:\USERS\DYLAN\DOCUMENTS\SWINBURNE\GP\BITBUCKET\12 - SPIKE - GAME GRAPHS FROM DATA\ZORKISH\ZORKISH\STAGEMANAGER.CPP
/c /ZI /nologo /W3 /WX- /diagnostics:classic /sdl /Od /Oy- /D _MBCS /Gm- /EHsc /RTC1 /MDd /GS /fp:precise /permissive- /Zc:wchar_t /Zc:forScope /Zc:inline /Fo"DEBUG\\" /Fd"DEBUG\VC141.PDB" /Gd /TP /analyze- /FC C:\USERS\DYLAN\DOCUMENTS\SWINBURNE\GP\BITBUCKET\12 - SPIKE - GAME GRAPHS FROM DATA\ZORKISH\ZORKISH\STAGEMANAGER.CPP
^C:\USERS\DYLAN\DOCUMENTS\SWINBURNE\GP\BITBUCKET\12 - SPIKE - GAME GRAPHS FROM DATA\ZORKISH\ZORKISH\WORLD.CPP
/c /ZI /nologo /W3 /WX- /diagnostics:classic /sdl /Od /Oy- /D _MBCS /Gm- /EHsc /RTC1 /MDd /GS /fp:precise /permissive- /Zc:wchar_t /Zc:forScope /Zc:inline /Fo"DEBUG\\" /Fd"DEBUG\VC141.PDB" /Gd /TP /analyze- /FC C:\USERS\DYLAN\DOCUMENTS\SWINBURNE\GP\BITBUCKET\12 - SPIKE - GAME GRAPHS FROM DATA\ZORKISH\ZORKISH\WORLD.CPP
^C:\USERS\DYLAN\DOCUMENTS\SWINBURNE\GP\BITBUCKET\12 - SPIKE - GAME GRAPHS FROM DATA\ZORKISH\ZORKISH\MAIN.CPP
/c /ZI /nologo /W3 /WX- /diagnostics:classic /sdl /Od /Oy- /D _MBCS /Gm- /EHsc /RTC1 /MDd /GS /fp:precise /permissive- /Zc:wchar_t /Zc:forScope /Zc:inline /Fo"DEBUG\\" /Fd"DEBUG\VC141.PDB" /Gd /TP /analyze- /FC C:\USERS\DYLAN\DOCUMENTS\SWINBURNE\GP\BITBUCKET\12 - SPIKE - GAME GRAPHS FROM DATA\ZORKISH\ZORKISH\MAIN.CPP
