^C:\USERS\DYLAN\DOCUMENTS\SWINBURNE\GP\BITBUCKET\11 - LAB - FILE INPUT OUTPUT\FILEIO\FILEIO\MAIN.CPP
C:\USERS\DYLAN\DOCUMENTS\SWINBURNE\GP\BITBUCKET\11 - LAB - FILE INPUT OUTPUT\FILEIO\FILEIO\DEBUG\VC141.PDB
C:\USERS\DYLAN\DOCUMENTS\SWINBURNE\GP\BITBUCKET\11 - LAB - FILE INPUT OUTPUT\FILEIO\FILEIO\DEBUG\VC141.IDB
C:\USERS\DYLAN\DOCUMENTS\SWINBURNE\GP\BITBUCKET\11 - LAB - FILE INPUT OUTPUT\FILEIO\FILEIO\DEBUG\MAIN.OBJ
