^C:\USERS\DYLAN\DOCUMENTS\SWINBURNE\GP\BITBUCKET\11 - LAB - FILE INPUT OUTPUT\FILEIO\FILEIO\DEBUG\MAIN.OBJ
C:\USERS\DYLAN\DOCUMENTS\SWINBURNE\GP\BITBUCKET\11 - LAB - FILE INPUT OUTPUT\FILEIO\DEBUG\FILEIO.EXE
C:\USERS\DYLAN\DOCUMENTS\SWINBURNE\GP\BITBUCKET\11 - LAB - FILE INPUT OUTPUT\FILEIO\DEBUG\FILEIO.ILK
C:\USERS\DYLAN\DOCUMENTS\SWINBURNE\GP\BITBUCKET\11 - LAB - FILE INPUT OUTPUT\FILEIO\DEBUG\FILEIO.PDB
