^C:\USERS\DYLAN\DOCUMENTS\SWINBURNE\GP\BITBUCKET\09 - SPIKE - GAME STATE MANAGEMENT\ZORKISHPHASE1\ZORKISHPHASE1\STAGE.CPP
/c /ZI /nologo /W3 /WX- /diagnostics:classic /sdl /Od /Oy- /D _MBCS /Gm- /EHsc /RTC1 /MDd /GS /fp:precise /permissive- /Zc:wchar_t /Zc:forScope /Zc:inline /Fo"DEBUG\\" /Fd"DEBUG\VC141.PDB" /Gd /TP /analyze- /FC C:\USERS\DYLAN\DOCUMENTS\SWINBURNE\GP\BITBUCKET\09 - SPIKE - GAME STATE MANAGEMENT\ZORKISHPHASE1\ZORKISHPHASE1\STAGE.CPP
^C:\USERS\DYLAN\DOCUMENTS\SWINBURNE\GP\BITBUCKET\09 - SPIKE - GAME STATE MANAGEMENT\ZORKISHPHASE1\ZORKISHPHASE1\ABOUT.CPP
/c /ZI /nologo /W3 /WX- /diagnostics:classic /sdl /Od /Oy- /D _MBCS /Gm- /EHsc /RTC1 /MDd /GS /fp:precise /permissive- /Zc:wchar_t /Zc:forScope /Zc:inline /Fo"DEBUG\\" /Fd"DEBUG\VC141.PDB" /Gd /TP /analyze- /FC C:\USERS\DYLAN\DOCUMENTS\SWINBURNE\GP\BITBUCKET\09 - SPIKE - GAME STATE MANAGEMENT\ZORKISHPHASE1\ZORKISHPHASE1\ABOUT.CPP
^C:\USERS\DYLAN\DOCUMENTS\SWINBURNE\GP\BITBUCKET\09 - SPIKE - GAME STATE MANAGEMENT\ZORKISHPHASE1\ZORKISHPHASE1\HELP.CPP
/c /ZI /nologo /W3 /WX- /diagnostics:classic /sdl /Od /Oy- /D _MBCS /Gm- /EHsc /RTC1 /MDd /GS /fp:precise /permissive- /Zc:wchar_t /Zc:forScope /Zc:inline /Fo"DEBUG\\" /Fd"DEBUG\VC141.PDB" /Gd /TP /analyze- /FC C:\USERS\DYLAN\DOCUMENTS\SWINBURNE\GP\BITBUCKET\09 - SPIKE - GAME STATE MANAGEMENT\ZORKISHPHASE1\ZORKISHPHASE1\HELP.CPP
^C:\USERS\DYLAN\DOCUMENTS\SWINBURNE\GP\BITBUCKET\09 - SPIKE - GAME STATE MANAGEMENT\ZORKISHPHASE1\ZORKISHPHASE1\HIGHSCORE.CPP
/c /ZI /nologo /W3 /WX- /diagnostics:classic /sdl /Od /Oy- /D _MBCS /Gm- /EHsc /RTC1 /MDd /GS /fp:precise /permissive- /Zc:wchar_t /Zc:forScope /Zc:inline /Fo"DEBUG\\" /Fd"DEBUG\VC141.PDB" /Gd /TP /analyze- /FC C:\USERS\DYLAN\DOCUMENTS\SWINBURNE\GP\BITBUCKET\09 - SPIKE - GAME STATE MANAGEMENT\ZORKISHPHASE1\ZORKISHPHASE1\HIGHSCORE.CPP
^C:\USERS\DYLAN\DOCUMENTS\SWINBURNE\GP\BITBUCKET\09 - SPIKE - GAME STATE MANAGEMENT\ZORKISHPHASE1\ZORKISHPHASE1\MAINMENU.CPP
/c /ZI /nologo /W3 /WX- /diagnostics:classic /sdl /Od /Oy- /D _MBCS /Gm- /EHsc /RTC1 /MDd /GS /fp:precise /permissive- /Zc:wchar_t /Zc:forScope /Zc:inline /Fo"DEBUG\\" /Fd"DEBUG\VC141.PDB" /Gd /TP /analyze- /FC C:\USERS\DYLAN\DOCUMENTS\SWINBURNE\GP\BITBUCKET\09 - SPIKE - GAME STATE MANAGEMENT\ZORKISHPHASE1\ZORKISHPHASE1\MAINMENU.CPP
^C:\USERS\DYLAN\DOCUMENTS\SWINBURNE\GP\BITBUCKET\09 - SPIKE - GAME STATE MANAGEMENT\ZORKISHPHASE1\ZORKISHPHASE1\SELECTADVENTURE.CPP
/c /ZI /nologo /W3 /WX- /diagnostics:classic /sdl /Od /Oy- /D _MBCS /Gm- /EHsc /RTC1 /MDd /GS /fp:precise /permissive- /Zc:wchar_t /Zc:forScope /Zc:inline /Fo"DEBUG\\" /Fd"DEBUG\VC141.PDB" /Gd /TP /analyze- /FC C:\USERS\DYLAN\DOCUMENTS\SWINBURNE\GP\BITBUCKET\09 - SPIKE - GAME STATE MANAGEMENT\ZORKISHPHASE1\ZORKISHPHASE1\SELECTADVENTURE.CPP
^C:\USERS\DYLAN\DOCUMENTS\SWINBURNE\GP\BITBUCKET\09 - SPIKE - GAME STATE MANAGEMENT\ZORKISHPHASE1\ZORKISHPHASE1\STAGEMANAGER.CPP
/c /ZI /nologo /W3 /WX- /diagnostics:classic /sdl /Od /Oy- /D _MBCS /Gm- /EHsc /RTC1 /MDd /GS /fp:precise /permissive- /Zc:wchar_t /Zc:forScope /Zc:inline /Fo"DEBUG\\" /Fd"DEBUG\VC141.PDB" /Gd /TP /analyze- /FC C:\USERS\DYLAN\DOCUMENTS\SWINBURNE\GP\BITBUCKET\09 - SPIKE - GAME STATE MANAGEMENT\ZORKISHPHASE1\ZORKISHPHASE1\STAGEMANAGER.CPP
^C:\USERS\DYLAN\DOCUMENTS\SWINBURNE\GP\BITBUCKET\09 - SPIKE - GAME STATE MANAGEMENT\ZORKISHPHASE1\ZORKISHPHASE1\TESTWORLD.CPP
/c /ZI /nologo /W3 /WX- /diagnostics:classic /sdl /Od /Oy- /D _MBCS /Gm- /EHsc /RTC1 /MDd /GS /fp:precise /permissive- /Zc:wchar_t /Zc:forScope /Zc:inline /Fo"DEBUG\\" /Fd"DEBUG\VC141.PDB" /Gd /TP /analyze- /FC C:\USERS\DYLAN\DOCUMENTS\SWINBURNE\GP\BITBUCKET\09 - SPIKE - GAME STATE MANAGEMENT\ZORKISHPHASE1\ZORKISHPHASE1\TESTWORLD.CPP
^C:\USERS\DYLAN\DOCUMENTS\SWINBURNE\GP\BITBUCKET\09 - SPIKE - GAME STATE MANAGEMENT\ZORKISHPHASE1\ZORKISHPHASE1\MAIN.CPP
/c /ZI /nologo /W3 /WX- /diagnostics:classic /sdl /Od /Oy- /D _MBCS /Gm- /EHsc /RTC1 /MDd /GS /fp:precise /permissive- /Zc:wchar_t /Zc:forScope /Zc:inline /Fo"DEBUG\\" /Fd"DEBUG\VC141.PDB" /Gd /TP /analyze- /FC C:\USERS\DYLAN\DOCUMENTS\SWINBURNE\GP\BITBUCKET\09 - SPIKE - GAME STATE MANAGEMENT\ZORKISHPHASE1\ZORKISHPHASE1\MAIN.CPP
^C:\USERS\DYLAN\DOCUMENTS\SWINBURNE\GP\BITBUCKET\09 - SPIKE - GAME STATE MANAGEMENT\ZORKISHPHASE1\ZORKISHPHASE1\HOF.CPP
/c /ZI /nologo /W3 /WX- /diagnostics:classic /sdl /Od /Oy- /D _MBCS /Gm- /EHsc /RTC1 /MDd /GS /fp:precise /permissive- /Zc:wchar_t /Zc:forScope /Zc:inline /Fo"DEBUG\\" /Fd"DEBUG\VC141.PDB" /Gd /TP /analyze- /FC C:\USERS\DYLAN\DOCUMENTS\SWINBURNE\GP\BITBUCKET\09 - SPIKE - GAME STATE MANAGEMENT\ZORKISHPHASE1\ZORKISHPHASE1\HOF.CPP
