^C:\USERS\DYLAN\DOCUMENTS\SWINBURNE\GP\BITBUCKET\09 - SPIKE - GAME STATE MANAGEMENT\ZORKISHPHASE1\ZORKISHPHASE1\DEBUG\ABOUT.OBJ|C:\USERS\DYLAN\DOCUMENTS\SWINBURNE\GP\BITBUCKET\09 - SPIKE - GAME STATE MANAGEMENT\ZORKISHPHASE1\ZORKISHPHASE1\DEBUG\HELP.OBJ|C:\USERS\DYLAN\DOCUMENTS\SWINBURNE\GP\BITBUCKET\09 - SPIKE - GAME STATE MANAGEMENT\ZORKISHPHASE1\ZORKISHPHASE1\DEBUG\HIGHSCORE.OBJ|C:\USERS\DYLAN\DOCUMENTS\SWINBURNE\GP\BITBUCKET\09 - SPIKE - GAME STATE MANAGEMENT\ZORKISHPHASE1\ZORKISHPHASE1\DEBUG\HOF.OBJ|C:\USERS\DYLAN\DOCUMENTS\SWINBURNE\GP\BITBUCKET\09 - SPIKE - GAME STATE MANAGEMENT\ZORKISHPHASE1\ZORKISHPHASE1\DEBUG\MAIN.OBJ|C:\USERS\DYLAN\DOCUMENTS\SWINBURNE\GP\BITBUCKET\09 - SPIKE - GAME STATE MANAGEMENT\ZORKISHPHASE1\ZORKISHPHASE1\DEBUG\MAINMENU.OBJ|C:\USERS\DYLAN\DOCUMENTS\SWINBURNE\GP\BITBUCKET\09 - SPIKE - GAME STATE MANAGEMENT\ZORKISHPHASE1\ZORKISHPHASE1\DEBUG\SELECTADVENTURE.OBJ|C:\USERS\DYLAN\DOCUMENTS\SWINBURNE\GP\BITBUCKET\09 - SPIKE - GAME STATE MANAGEMENT\ZORKISHPHASE1\ZORKISHPHASE1\DEBUG\STAGE.OBJ|C:\USERS\DYLAN\DOCUMENTS\SWINBURNE\GP\BITBUCKET\09 - SPIKE - GAME STATE MANAGEMENT\ZORKISHPHASE1\ZORKISHPHASE1\DEBUG\STAGEMANAGER.OBJ|C:\USERS\DYLAN\DOCUMENTS\SWINBURNE\GP\BITBUCKET\09 - SPIKE - GAME STATE MANAGEMENT\ZORKISHPHASE1\ZORKISHPHASE1\DEBUG\TESTWORLD.OBJ
C:\PROGRAM FILES (X86)\WINDOWS KITS\10\LIB\10.0.17134.0\UM\X86\KERNEL32.LIB
C:\PROGRAM FILES (X86)\WINDOWS KITS\10\LIB\10.0.17134.0\UM\X86\USER32.LIB
C:\PROGRAM FILES (X86)\WINDOWS KITS\10\LIB\10.0.17134.0\UM\X86\GDI32.LIB
C:\PROGRAM FILES (X86)\WINDOWS KITS\10\LIB\10.0.17134.0\UM\X86\WINSPOOL.LIB
C:\PROGRAM FILES (X86)\WINDOWS KITS\10\LIB\10.0.17134.0\UM\X86\COMDLG32.LIB
C:\PROGRAM FILES (X86)\WINDOWS KITS\10\LIB\10.0.17134.0\UM\X86\ADVAPI32.LIB
C:\PROGRAM FILES (X86)\WINDOWS KITS\10\LIB\10.0.17134.0\UM\X86\SHELL32.LIB
C:\PROGRAM FILES (X86)\WINDOWS KITS\10\LIB\10.0.17134.0\UM\X86\OLE32.LIB
C:\PROGRAM FILES (X86)\WINDOWS KITS\10\LIB\10.0.17134.0\UM\X86\OLEAUT32.LIB
C:\PROGRAM FILES (X86)\WINDOWS KITS\10\LIB\10.0.17134.0\UM\X86\UUID.LIB
C:\PROGRAM FILES (X86)\WINDOWS KITS\10\LIB\10.0.17134.0\UM\X86\ODBC32.LIB
C:\PROGRAM FILES (X86)\WINDOWS KITS\10\LIB\10.0.17134.0\UM\X86\ODBCCP32.LIB
C:\USERS\DYLAN\DOCUMENTS\SWINBURNE\GP\BITBUCKET\09 - SPIKE - GAME STATE MANAGEMENT\ZORKISHPHASE1\ZORKISHPHASE1\DEBUG\ABOUT.OBJ
C:\USERS\DYLAN\DOCUMENTS\SWINBURNE\GP\BITBUCKET\09 - SPIKE - GAME STATE MANAGEMENT\ZORKISHPHASE1\ZORKISHPHASE1\DEBUG\HELP.OBJ
C:\USERS\DYLAN\DOCUMENTS\SWINBURNE\GP\BITBUCKET\09 - SPIKE - GAME STATE MANAGEMENT\ZORKISHPHASE1\ZORKISHPHASE1\DEBUG\HIGHSCORE.OBJ
C:\USERS\DYLAN\DOCUMENTS\SWINBURNE\GP\BITBUCKET\09 - SPIKE - GAME STATE MANAGEMENT\ZORKISHPHASE1\ZORKISHPHASE1\DEBUG\HOF.OBJ
C:\USERS\DYLAN\DOCUMENTS\SWINBURNE\GP\BITBUCKET\09 - SPIKE - GAME STATE MANAGEMENT\ZORKISHPHASE1\ZORKISHPHASE1\DEBUG\MAIN.OBJ
C:\USERS\DYLAN\DOCUMENTS\SWINBURNE\GP\BITBUCKET\09 - SPIKE - GAME STATE MANAGEMENT\ZORKISHPHASE1\ZORKISHPHASE1\DEBUG\MAINMENU.OBJ
C:\USERS\DYLAN\DOCUMENTS\SWINBURNE\GP\BITBUCKET\09 - SPIKE - GAME STATE MANAGEMENT\ZORKISHPHASE1\ZORKISHPHASE1\DEBUG\SELECTADVENTURE.OBJ
C:\USERS\DYLAN\DOCUMENTS\SWINBURNE\GP\BITBUCKET\09 - SPIKE - GAME STATE MANAGEMENT\ZORKISHPHASE1\ZORKISHPHASE1\DEBUG\STAGE.OBJ
C:\USERS\DYLAN\DOCUMENTS\SWINBURNE\GP\BITBUCKET\09 - SPIKE - GAME STATE MANAGEMENT\ZORKISHPHASE1\ZORKISHPHASE1\DEBUG\STAGEMANAGER.OBJ
C:\USERS\DYLAN\DOCUMENTS\SWINBURNE\GP\BITBUCKET\09 - SPIKE - GAME STATE MANAGEMENT\ZORKISHPHASE1\ZORKISHPHASE1\DEBUG\TESTWORLD.OBJ
C:\WINDOWS\SYSTEM32\TZRES.DLL
C:\WINDOWS\GLOBALIZATION\SORTING\SORTDEFAULT.NLS
C:\PROGRAM FILES (X86)\MICROSOFT VISUAL STUDIO\2017\COMMUNITY\VC\TOOLS\MSVC\14.14.26428\LIB\X86\MSVCPRTD.LIB
C:\PROGRAM FILES (X86)\MICROSOFT VISUAL STUDIO\2017\COMMUNITY\VC\TOOLS\MSVC\14.14.26428\LIB\X86\MSVCRTD.LIB
C:\PROGRAM FILES (X86)\MICROSOFT VISUAL STUDIO\2017\COMMUNITY\VC\TOOLS\MSVC\14.14.26428\LIB\X86\OLDNAMES.LIB
C:\PROGRAM FILES (X86)\MICROSOFT VISUAL STUDIO\2017\COMMUNITY\VC\TOOLS\MSVC\14.14.26428\LIB\X86\VCRUNTIMED.LIB
C:\PROGRAM FILES (X86)\WINDOWS KITS\10\LIB\10.0.17134.0\UCRT\X86\UCRTD.LIB
C:\PROGRAM FILES (X86)\MICROSOFT VISUAL STUDIO\2017\COMMUNITY\VC\TOOLS\MSVC\14.14.26428\BIN\HOSTX86\X86\VCTIP.EXE
