^C:\USERS\DYLAN\DOCUMENTS\SWINBURNE\GP\BITBUCKET\10 - SPIKE - GAME DATA STRUCTURES\INVENTORYTEST\INVENTORYTEST\INVENTORY.CPP
/c /ZI /nologo /W3 /WX- /diagnostics:classic /sdl /Od /Oy- /D _MBCS /Gm- /EHsc /RTC1 /MDd /GS /fp:precise /permissive- /Zc:wchar_t /Zc:forScope /Zc:inline /Fo"DEBUG\\" /Fd"DEBUG\VC141.PDB" /Gd /TP /analyze- /FC C:\USERS\DYLAN\DOCUMENTS\SWINBURNE\GP\BITBUCKET\10 - SPIKE - GAME DATA STRUCTURES\INVENTORYTEST\INVENTORYTEST\INVENTORY.CPP
^C:\USERS\DYLAN\DOCUMENTS\SWINBURNE\GP\BITBUCKET\10 - SPIKE - GAME DATA STRUCTURES\INVENTORYTEST\INVENTORYTEST\MAIN.CPP
/c /ZI /nologo /W3 /WX- /diagnostics:classic /sdl /Od /Oy- /D _MBCS /Gm- /EHsc /RTC1 /MDd /GS /fp:precise /permissive- /Zc:wchar_t /Zc:forScope /Zc:inline /Fo"DEBUG\\" /Fd"DEBUG\VC141.PDB" /Gd /TP /analyze- /FC C:\USERS\DYLAN\DOCUMENTS\SWINBURNE\GP\BITBUCKET\10 - SPIKE - GAME DATA STRUCTURES\INVENTORYTEST\INVENTORYTEST\MAIN.CPP
